{"data":[{"slug":"university-of-california-davis","name":"University of California - Davis","address":"Address\nOne Shields Avenue\nDavis, CA 95616","ranking":{"rank":null,"type":null,"full_name":null},"score_range":{"sat":"1130-1360","act":"25-32"},"description":"UC Davis is a highly rated public university located in University of California-Davis, California in the Sacramento Area. It is a large institution with an enrollment of 29,284 undergraduate students. Admissions is fairly competitive as the UC Davis acceptance rate is 43%. Popular majors include Research and Experimental Psychology, Economics, and Managerial Economics. Graduating 85% of students, UC Davis alumni go on to earn a starting salary of $40,400.","created_at":"2020-02-29T12:32:59.259Z","background_url":null,"score_rating":{"overall":9,"academic":9,"diversity":9,"athletic":8,"professor":9,"dorm":8,"student_life":9,"value":10,"campus":8,"party_scene":7,"location":7,"campus_food":9,"safety":6}},{"slug":"bryn-mawr-college","name":"Bryn Mawr College","address":"Address\n101 N Merion Avenue\nBryn Mawr, PA 19010","ranking":{"rank":null,"type":null,"full_name":null},"score_range":{"sat":"1310-1500","act":"29-33"},"description":"None","created_at":"2020-02-29T12:32:59.270Z","background_url":"https://d13b2ieg84qqce.cloudfront.net/15bf74fb19c974aee6f626b6328f96403fe95156.jpg","score_rating":{"overall":10,"academic":10,"diversity":10,"athletic":null,"professor":9,"dorm":9,"student_life":9,"value":9,"campus":9,"party_scene":5,"location":7,"campus_food":9,"safety":7}},{"slug":"brigham-young-university","name":"Brigham Young University","address":"Address\nMain Campus\nProvo, UT 84602","ranking":{"rank":null,"type":null,"full_name":null},"score_range":{"sat":"1210-1410","act":"27-32"},"description":"Brigham Young is a highly rated private, Christian university located in Provo, Utah in the Salt Lake City Area. It is a large institution with an enrollment of 28,156 undergraduate students. Admissions is fairly competitive as the Brigham Young acceptance rate is 52%. Popular majors include Exercise Physiology, Accounting, and Psychology. Graduating 83% of students, Brigham Young alumni go on to earn a starting salary of $41,100.","created_at":"2020-02-29T12:32:59.278Z","background_url":"https://d13b2ieg84qqce.cloudfront.net/cbd53e373fe6f8a5dc58fa2584253139f4786e04.jpg","score_rating":{"overall":10,"academic":10,"diversity":6,"athletic":8,"professor":8,"dorm":8,"student_life":10,"value":9,"campus":9,"party_scene":4,"location":6,"campus_food":9,"safety":9}},{"slug":"adelphi-university","name":"Adelphi University","address":"Address\nSouth Ave\nGarden City, NY 11530","ranking":{"rank":null,"type":null,"full_name":null},"score_range":{"sat":"1060-1240","act":"22-27"},"description":"None","created_at":"2020-02-29T12:32:59.288Z","background_url":null,"score_rating":{"overall":7,"academic":6,"diversity":9,"athletic":6,"professor":6,"dorm":4,"student_life":7,"value":8,"campus":7,"party_scene":5,"location":8,"campus_food":4,"safety":8}},{"slug":"kansas-state-university","name":"Kansas State University","address":"Address\n919 Mid-Campus Drive, Anderson Hall\nManhattan, KS 66506","ranking":{"rank":null,"type":null,"full_name":null},"score_range":{"sat":"—","act":"—"},"description":"Kansas State is a highly rated public university located in Manhattan, Kansas. It is a large institution with an enrollment of 16,770 undergraduate students. The Kansas State acceptance rate is 94%. Popular majors include Animal Sciences and Husbandry, Human Development, and Business. Graduating 63% of students, Kansas State alumni go on to earn a starting salary of $38,400.","created_at":"2020-02-29T12:32:59.297Z","background_url":null,"score_rating":{"overall":8,"academic":7,"diversity":8,"athletic":9,"professor":9,"dorm":7,"student_life":10,"value":8,"campus":10,"party_scene":10,"location":8,"campus_food":9,"safety":7}}],"meta":{"current_page":2,"next_page":3,"prev_page":1,"total_pages":100,"total_count":500}}
